{
    "name": "REVISED_SIMPLEX_options",
    "required":["max_iter"],
    "properties": {
        "disp": {
            "type": "boolean"
        },
        "max_iter":{
            "type": "integer",
            "minimum": 1
        }
    },
    "$schema": "http://json-schema.org/draft-04/schema",
    "additionalProperties": false,
    "type": "object",
    "id": "#REVISED_SIMPLEX"
}
