{
    "name": "OT_SOBOL_INDICES_options",
    "description": "DOE for Sobol' indices from the OpenTURNS library",
    "id": "https://openturns.github.io/openturns/latest/user_manual/_generated/openturns.SobolIndicesExperiment.html",
    "properties": {
        "n_samples":{
            "type": "integer",
             "minimum": 1
        },
         "eval_jac":{
            "type": "boolean"
        },
        "n_processes": {
        	"type" : "integer",
        	"minimum":1
        },
        "wait_time_between_samples": {
        	"type" : "number",
        	"minimum":0
        },
        "seed": {
            "anyOf": [
                {
                    "type": "null"
                },
                {
                    "type": "integer",
                    "minimum": 1
                }
            ]
        },
		"max_time": {
            "type": "number",
            "minimum": 0.0
        },
		"eval_second_order": {
            "type": "boolean"
        }
    },
    "$schema": "http://json-schema.org/draft-04/schema",
    "additionalProperties": false,
    "type": "object"
}
