{
    "name": "ParallelCoordinates_options",
    "required": [],
    "properties": {

    },
    "additionalProperties": false,
    "$schema": "http://json-schema.org/draft-04/schema",
    "type": "object"
}
